csv/June72022_DUNEPDSTests/singlephotonsearch/12usecwindow__25MHzSR_1kpts_10mVperdiv_ch4_44.135Bias/trace_ch4_20220607144212245.csv

Model,MSO44
Waveform Type,ANALOG
Horizontal Units,s
Sample Interval,4.00000000e-08
Record Length,1000
Zero Index,142.36412500
Vertical Units,V
ANALOG_Thumbnail,

TIME,CH4
-5.69456500e-06,4.26562500e-04
-5.65456500e-06,2.81250000e-03
-5.61456500e-06,-1.01562500e-04
-5.57456500e-06,-3.12500000e-04
-5.53456500e-06,5.04687500e-04
-5.49456500e-06,3.73437500e-04
-5.45456500e-06,-1.12500000e-03
-5.41456500e-06,-1.62031250e-03
-5.37456500e-06,-1.08750000e-03
-5.33456500e-06,1.35625000e-03
-5.29456500e-06,-5.96875000e-04
-5.25456500e-06,3.29687500e-04
-5.21456500e-06,5.96875000e-04
-5.17456500e-06,-2.08593750e-03
-5.13456500e-06,1.35000000e-03
-5.09456500e-06,3.70312500e-04
-5.05456500e-06,-7.76562500e-04
-5.01456500e-06,2.65625000e-03
-4.97456500e-06,3.28125000e-04
-4.93456500e-06,3.20937500e-03
-4.89456500e-06,3.78125000e-03
-4.85456500e-06,-2.05781250e-03
-4.81456500e-06,-3.83906250e-03
-4.77456500e-06,1.02343750e-03
-4.73456500e-06,2.55937500e-03
-4.69456500e-06,-2.01562500e-03
-4.65456500e-06,-1.97031250e-03
-4.61456500e-06,-9.56250000e-04
-4.57456500e-06,-4.64062500e-04
-4.53456500e-06,1.92968750e-03
-4.49456500e-06,3.72656250e-03
-4.45456500e-06,-2.18125000e-03
-4.41456500e-06,1.93750000e-04
-4.37456500e-06,-1.51406250e-03
-4.33456500e-06,-9.34375000e-04
-4.29456500e-06,1.57812500e-04
-4.25456500e-06,8.57812500e-04
-4.21456500e-06,-5.92187500e-04
-4.17456500e-06,-3.59375000e-04
-4.13456500e-06,4.28125000e-04
-4.09456500e-06,1.66562500e-03
-4.05456500e-06,1.30781250e-03
-4.01456500e-06,-8.23437500e-04
-3.97456500e-06,-1.62500000e-03
-3.93456500e-06,2.92812500e-03
-3.89456500e-06,5.14843750e-03
-3.85456500e-06,4.22031250e-03
-3.81456500e-06,-3.93750000e-04
-3.77456500e-06,-3.17968750e-03
-3.73456500e-06,-3.03437500e-03
-3.69456500e-06,-1.11562500e-03
-3.65456500e-06,9.81250000e-04
-3.61456500e-06,-1.42187500e-04
-3.57456500e-06,-7.68750000e-04
-3.53456500e-06,-1.09375000e-04
-3.49456500e-06,2.89062500e-03
-3.45456500e-06,1.75156250e-03
-3.41456500e-06,-3.56875000e-03
-3.37456500e-06,-1.45000000e-03
-3.33456500e-06,-7.59375000e-04
-3.29456500e-06,7.00000000e-04
-3.25456500e-06,-1.27968750e-03
-3.21456500e-06,-2.24687500e-03
-3.17456500e-06,-2.34375000e-05
-3.13456500e-06,2.10625000e-03
-3.09456500e-06,1.22968750e-03
-3.05456500e-06,-1.08437500e-03
-3.01456500e-06,-1.28437500e-03
-2.97456500e-06,-1.44375000e-03
-2.93456500e-06,-1.02343750e-03
-2.89456500e-06,-5.82812500e-04
-2.85456500e-06,-4.32812500e-04
-2.81456500e-06,4.65625000e-04
-2.77456500e-06,2.17031250e-03
-2.73456500e-06,4.40312500e-03
-2.69456500e-06,2.77968750e-03
-2.65456500e-06,-1.07500000e-03
-2.61456500e-06,-2.85000000e-03
-2.57456500e-06,7.81250000e-06
-2.53456500e-06,-8.81250000e-04
-2.49456500e-06,1.09062500e-03
-2.45456500e-06,2.50156250e-03
-2.41456500e-06,2.89531250e-03
-2.37456500e-06,-1.20625000e-03
-2.33456500e-06,6.25000000e-06
-2.29456500e-06,-1.11875000e-03
-2.25456500e-06,-1.62500000e-03
-2.21456500e-06,-1.57656250e-03
-2.17456500e-06,-1.04687500e-04
-2.13456500e-06,4.74687500e-03
-2.09456500e-06,3.62343750e-03
-2.05456500e-06,6.68750000e-04
-2.01456500e-06,-5.23437500e-04
-1.97456500e-06,-9.21875000e-04
-1.93456500e-06,-1.28593750e-03
-1.89456500e-06,-1.40781250e-03
-1.85456500e-06,-3.51562500e-04
-1.81456500e-06,-2.52031250e-03
-1.77456500e-06,-1.91562500e-03
-1.73456500e-06,-1.02343750e-03
-1.69456500e-06,1.37968750e-03
-1.65456500e-06,2.19843750e-03
-1.61456500e-06,1.46562500e-03
-1.57456500e-06,-3.37500000e-04
-1.53456500e-06,2.98125000e-03
-1.49456500e-06,1.62500000e-04
-1.45456500e-06,-7.98437500e-04
-1.41456500e-06,-1.72031250e-03
-1.37456500e-06,-9.28125000e-04
-1.33456500e-06,-8.46875000e-04
-1.29456500e-06,7.70312500e-04
-1.25456500e-06,2.54531250e-03
-1.21456500e-06,1.26250000e-03
-1.17456500e-06,-2.48281250e-03
-1.13456500e-06,-4.06875000e-03
-1.09456500e-06,-7.03125000e-04
-1.05456500e-06,5.62500000e-05
-1.01456500e-06,-8.57812500e-04
-9.74565000e-07,-6.00000000e-04
-9.34565000e-07,-1.31093750e-03
-8.94565000e-07,6.28125000e-04
-8.54565000e-07,3.62812500e-03
-8.14565000e-07,2.36718750e-03
-7.74565000e-07,5.93750000e-04
-7.34565000e-07,8.57812500e-04
-6.94565000e-07,1.72187500e-03
-6.54565000e-07,2.92500000e-03
-6.14565000e-07,2.54843750e-03
-5.74565000e-07,-1.38593750e-03
-5.34565000e-07,-5.70312500e-04
-4.94565000e-07,-3.05000000e-03
-4.54565000e-07,-2.44218750e-03
-4.14565000e-07,-1.46718750e-03
-3.74565000e-07,7.64062500e-04
-3.34565000e-07,3.78906250e-03
-2.94565000e-07,5.12187500e-03
-2.54565000e-07,1.51718750e-03
-2.14565000e-07,-3.83125000e-03
-1.74565000e-07,-1.90000000e-03
-1.34565000e-07,3.17187500e-04
-9.45650000e-08,2.21875000e-03
-5.45650000e-08,-1.65625000e-04
-1.45650000e-08,5.85937500e-04
2.54350000e-08,9.03125000e-04
6.54350000e-08,-2.03437500e-03
1.05435000e-07,-4.87500000e-04
1.45435000e-07,-1.88906250e-03
1.85435000e-07,-3.45937500e-03
2.25435000e-07,-7.96875000e-04
2.65435000e-07,1.31093750e-03
3.05435000e-07,1.21875000e-03
3.45435000e-07,3.98437500e-04
3.85435000e-07,-1.71875000e-04
4.25435000e-07,-7.73437500e-04
4.65435000e-07,1.42187500e-03
5.05435000e-07,1.89687500e-03
5.45435000e-07,4.17187500e-04
5.85435000e-07,-7.71875000e-04
6.25435000e-07,-1.64218750e-03
6.65435000e-07,6.31250000e-04
7.05435000e-07,-5.65625000e-04
7.45435000e-07,1.10468750e-03
7.85435000e-07,1.26562500e-04
8.25435000e-07,2.67187500e-04
8.65435000e-07,1.66875000e-03
9.05435000e-07,-4.84375000e-04
9.45435000e-07,4.57812500e-04
9.85435000e-07,-3.09375000e-04
1.02543500e-06,3.43750000e-05
1.06543500e-06,6.20312500e-04
1.10543500e-06,1.56093750e-03
1.14543500e-06,2.34531250e-03
1.18543500e-06,1.62343750e-03
1.22543500e-06,-3.11718750e-03
1.26543500e-06,-1.21562500e-03
1.30543500e-06,-1.47187500e-03
1.34543500e-06,5.23437500e-04
1.38543500e-06,2.68750000e-03
1.42543500e-06,3.01875000e-03
1.46543500e-06,-1.20156250e-03
1.50543500e-06,-1.76406250e-03
1.54543500e-06,1.93750000e-04
1.58543500e-06,-6.65625000e-04
1.62543500e-06,-2.45781250e-03
1.66543500e-06,-1.00000000e-04
1.70543500e-06,2.41718750e-03
1.74543500e-06,2.68750000e-04
1.78543500e-06,-1.71875000e-04
1.82543500e-06,-1.77187500e-03
1.86543500e-06,-6.89062500e-04
1.90543500e-06,1.34375000e-03
1.94543500e-06,2.51562500e-04
1.98543500e-06,-3.60937500e-04
2.02543500e-06,-1.20312500e-04
2.06543500e-06,4.18750000e-04
2.10543500e-06,-8.25000000e-04
2.14543500e-06,2.30156250e-03
2.18543500e-06,4.12500000e-04
2.22543500e-06,-2.22656250e-03
2.26543500e-06,-4.05156250e-03
2.30543500e-06,-1.13437500e-03
2.34543500e-06,6.07812500e-04
2.38543500e-06,2.82500000e-03
2.42543500e-06,5.53125000e-04
2.46543500e-06,5.93750000e-04
2.50543500e-06,3.43750000e-04
2.54543500e-06,1.19218750e-03
2.58543500e-06,-5.85937500e-04
2.62543500e-06,-1.14843750e-03
2.66543500e-06,-7.06250000e-04
2.70543500e-06,-1.42656250e-03
2.74543500e-06,1.73437500e-04
2.78543500e-06,6.46875000e-04
2.82543500e-06,2.02812500e-03
2.86543500e-06,5.60937500e-04
2.90543500e-06,1.19062500e-03
2.94543500e-06,-2.55156250e-03
2.98543500e-06,-5.48437500e-04
3.02543500e-06,-6.76562500e-04
3.06543500e-06,-2.39218750e-03
3.10543500e-06,-9.96875000e-04
3.14543500e-06,3.51562500e-04
3.18543500e-06,6.09375000e-05
3.22543500e-06,2.93750000e-04
3.26543500e-06,7.85937500e-04
3.30543500e-06,4.68750000e-06
3.34543500e-06,-2.16406250e-03
3.38543500e-06,-9.75000000e-04
3.42543500e-06,5.51562500e-04
3.46543500e-06,2.76562500e-03
3.50543500e-06,3.12656250e-03
3.54543500e-06,-6.56250000e-05
3.58543500e-06,-3.08593750e-03
3.62543500e-06,-2.75000000e-03
3.66543500e-06,-8.28125000e-04
3.70543500e-06,3.79843750e-03
3.74543500e-06,3.61875000e-03
3.78543500e-06,1.86250000e-03
3.82543500e-06,-1.40468750e-03
3.86543500e-06,-1.15937500e-03
3.90543500e-06,-1.34531250e-03
3.94543500e-06,-7.03125000e-05
3.98543500e-06,8.28125000e-04
4.02543500e-06,1.51875000e-03
4.06543500e-06,7.28125000e-04
4.10543500e-06,-3.42187500e-04
4.14543500e-06,-1.85312500e-03
4.18543500e-06,-1.30000000e-03
4.22543500e-06,-4.35937500e-04
4.26543500e-06,-2.14062500e-04
4.30543500e-06,1.56406250e-03
4.34543500e-06,-4.89062500e-04
4.38543500e-06,-3.04687500e-04
4.42543500e-06,6.09375000e-04
4.46543500e-06,-1.18593750e-03
4.50543500e-06,-9.85937500e-04
4.54543500e-06,-1.02656250e-03
4.58543500e-06,-2.16718750e-03
4.62543500e-06,-2.89531250e-03
4.66543500e-06,5.20312500e-04
4.70543500e-06,1.71562500e-03
4.74543500e-06,1.16250000e-03
4.78543500e-06,-1.04687500e-03
4.82543500e-06,-2.23437500e-04
4.86543500e-06,-3.50000000e-04
4.90543500e-06,1.29218750e-03
4.94543500e-06,3.59375000e-04
4.98543500e-06,6.71875000e-04
5.02543500e-06,2.01562500e-04
5.06543500e-06,-2.47187500e-03
5.10543500e-06,-1.33906250e-03
5.14543500e-06,-7.75000000e-04
5.18543500e-06,5.87500000e-04
5.22543500e-06,2.63125000e-03
5.26543500e-06,2.26562500e-03
5.30543500e-06,5.06250000e-04
5.34543500e-06,2.59843750e-03
5.38543500e-06,7.65625000e-04
5.42543500e-06,-5.64062500e-04
5.46543500e-06,-2.25781250e-03
5.50543500e-06,-1.05312500e-03
5.54543500e-06,1.16718750e-03
5.58543500e-06,-6.31250000e-04
5.62543500e-06,2.00468750e-03
5.66543500e-06,1.11875000e-03
5.70543500e-06,2.17187500e-04
5.74543500e-06,5.71875000e-04
5.78543500e-06,1.17343750e-03
5.82543500e-06,-2.39062500e-04
5.86543500e-06,-2.70000000e-03
5.90543500e-06,-2.44062500e-03
5.94543500e-06,-1.50156250e-03
5.98543500e-06,-5.89062500e-04
6.02543500e-06,2.28593750e-03
6.06543500e-06,1.46718750e-03
6.10543500e-06,1.67031250e-03
6.14543500e-06,6.29687500e-04
6.18543500e-06,-1.57187500e-03
6.22543500e-06,-2.66093750e-03
6.26543500e-06,-1.15156250e-03
6.30543500e-06,6.04687500e-04
6.34543500e-06,-1.99687500e-03
6.38543500e-06,8.57812500e-04
6.42543500e-06,1.22812500e-03
6.46543500e-06,2.10937500e-04
6.50543500e-06,3.07812500e-04
6.54543500e-06,-6.46875000e-04
6.58543500e-06,1.07656250e-03
6.62543500e-06,1.11562500e-03
6.66543500e-06,1.14062500e-03
6.70543500e-06,2.87343750e-03
6.74543500e-06,1.15468750e-03
6.78543500e-06,6.67187500e-04
6.82543500e-06,-1.75937500e-03
6.86543500e-06,-1.34687500e-03
6.90543500e-06,-1.30468750e-03
6.94543500e-06,-2.52968750e-03
6.98543500e-06,-3.21875000e-03
7.02543500e-06,-1.58593750e-03
7.06543500e-06,-4.71875000e-04
7.10543500e-06,2.91093750e-03
7.14543500e-06,5.88593750e-03
7.18543500e-06,5.23281250e-03
7.22543500e-06,1.51562500e-03
7.26543500e-06,-1.75312500e-03
7.30543500e-06,1.14843750e-03
7.34543500e-06,1.46718750e-03
7.38543500e-06,-1.47968750e-03
7.42543500e-06,-4.64531250e-03
7.46543500e-06,-4.58125000e-03
7.50543500e-06,-2.49843750e-03
7.54543500e-06,-1.40625000e-05
7.58543500e-06,-2.81250000e-05
7.62543500e-06,-4.89062500e-04
7.66543500e-06,1.03437500e-03
7.70543500e-06,1.82968750e-03
7.74543500e-06,4.45625000e-03
7.78543500e-06,3.41250000e-03
7.82543500e-06,2.32656250e-03
7.86543500e-06,-2.61875000e-03
7.90543500e-06,-4.78593750e-03
7.94543500e-06,-2.25468750e-03
7.98543500e-06,2.93750000e-04
8.02543500e-06,2.90312500e-03
8.06543500e-06,5.34218750e-03
8.10543500e-06,1.22343750e-03
8.14543500e-06,-3.73437500e-03
8.18543500e-06,-2.87968750e-03
8.22543500e-06,-1.11718750e-03
8.26543500e-06,-1.24843750e-03
8.30543500e-06,-5.71875000e-04
8.34543500e-06,1.21875000e-04
8.38543500e-06,-2.27031250e-03
8.42543500e-06,-1.14843750e-03
8.46543500e-06,4.65625000e-04
8.50543500e-06,8.14062500e-04
8.54543500e-06,5.81250000e-04
8.58543500e-06,-1.40625000e-04
8.62543500e-06,3.95312500e-04
8.66543500e-06,1.69375000e-03
8.70543500e-06,6.76562500e-04
8.74543500e-06,1.03906250e-03
8.78543500e-06,6.93750000e-04
8.82543500e-06,-1.40625000e-04
8.86543500e-06,-1.18593750e-03
8.90543500e-06,1.58437500e-03
8.94543500e-06,1.63750000e-03
8.98543500e-06,1.84375000e-03
9.02543500e-06,-6.93750000e-04
9.06543500e-06,-1.48125000e-03
9.10543500e-06,1.60000000e-03
9.14543500e-06,-1.20312500e-04
9.18543500e-06,-3.75000000e-04
9.22543500e-06,-2.70312500e-04
9.26543500e-06,1.04843750e-03
9.30543500e-06,3.14062500e-04
9.34543500e-06,-1.58593750e-03
9.38543500e-06,-1.75937500e-03
9.42543500e-06,-2.01250000e-03
9.46543500e-06,2.96875000e-05
9.50543500e-06,2.11093750e-03
9.54543500e-06,3.19531250e-03
9.58543500e-06,2.98125000e-03
9.62543500e-06,-2.30781250e-03
9.66543500e-06,-5.15937500e-03
9.70543500e-06,-1.34375000e-03
9.74543500e-06,-1.35781250e-03
9.78543500e-06,-9.87500000e-04
9.82543500e-06,-3.93750000e-04
9.86543500e-06,5.28125000e-04
9.90543500e-06,9.60937500e-04
9.94543500e-06,1.46562500e-03
9.98543500e-06,4.22968750e-03
1.00254350e-05,3.34062500e-03
1.00654350e-05,4.78125000e-04
1.01054350e-05,-4.60000000e-03
1.01454350e-05,-4.10000000e-03
1.01854350e-05,-6.95312500e-04
1.02254350e-05,1.05312500e-03
1.02654350e-05,-2.68750000e-03
1.03054350e-05,-2.78281250e-03
1.03454350e-05,2.48437500e-04
1.03854350e-05,2.34375000e-05
1.04254350e-05,2.85312500e-03
1.04654350e-05,1.45937500e-03
1.05054350e-05,-8.81250000e-04
1.05454350e-05,-2.90625000e-04
1.05854350e-05,2.48437500e-04
1.06254350e-05,1.42968750e-03
1.06654350e-05,1.78281250e-03
1.07054350e-05,3.34687500e-03
1.07454350e-05,4.77968750e-03
1.07854350e-05,1.44062500e-03
1.08254350e-05,3.17500000e-03
1.08654350e-05,-3.14062500e-04
1.09054350e-05,-4.25156250e-03
1.09454350e-05,-6.61250000e-03
1.09854350e-05,-3.58906250e-03
1.10254350e-05,1.37500000e-03
1.10654350e-05,4.39062500e-04
1.11054350e-05,-2.40781250e-03
1.11454350e-05,-3.87656250e-03
1.11854350e-05,-2.22343750e-03
1.12254350e-05,-2.84375000e-03
1.12654350e-05,-1.16562500e-03
1.13054350e-05,8.21875000e-04
1.13454350e-05,1.57031250e-03
1.13854350e-05,-6.50000000e-04
1.14254350e-05,7.32812500e-04
1.14654350e-05,4.68750000e-06
1.15054350e-05,-7.28125000e-04
1.15454350e-05,2.27031250e-03
1.15854350e-05,2.82187500e-03
1.16254350e-05,8.14062500e-04
1.16654350e-05,9.20312500e-04
1.17054350e-05,-6.54687500e-04
1.17454350e-05,-6.31250000e-04
1.17854350e-05,-1.43437500e-03
1.18254350e-05,-1.40937500e-03
1.18654350e-05,-1.36093750e-03
1.19054350e-05,-1.21875000e-04
1.19454350e-05,8.17187500e-04
1.19854350e-05,5.53125000e-04
1.20254350e-05,-3.20312500e-04
1.20654350e-05,9.39062500e-04
1.21054350e-05,1.46562500e-03
1.21454350e-05,8.01562500e-04
1.21854350e-05,-1.72812500e-03
1.22254350e-05,-2.02031250e-03
1.22654350e-05,-1.49062500e-03
1.23054350e-05,-6.70312500e-04
1.23454350e-05,5.84375000e-04
1.23854350e-05,2.02343750e-03
1.24254350e-05,1.76250000e-03
1.24654350e-05,5.10937500e-04
1.25054350e-05,5.96875000e-04
1.25454350e-05,1.19687500e-03
1.25854350e-05,-6.20312500e-04
1.26254350e-05,2.60625000e-03
1.26654350e-05,1.38750000e-03
1.27054350e-05,-4.12500000e-04
1.27454350e-05,-5.31250000e-04
1.27854350e-05,-2.22500000e-03
1.28254350e-05,-4.35937500e-04
1.28654350e-05,-3.09375000e-04
1.29054350e-05,2.53281250e-03
1.29454350e-05,3.51562500e-04
1.29854350e-05,-4.12343750e-03
1.30254350e-05,-7.43750000e-04
1.30654350e-05,-8.60937500e-04
1.31054350e-05,-3.99062500e-03
1.31454350e-05,-2.19687500e-03
1.31854350e-05,5.87500000e-04
1.32254350e-05,1.00937500e-03
1.32654350e-05,7.85937500e-04
1.33054350e-05,5.87500000e-04
1.33454350e-05,3.12500000e-06
1.33854350e-05,-9.68750000e-05
1.34254350e-05,2.48750000e-03
1.34654350e-05,4.49531250e-03
1.35054350e-05,2.65468750e-03
1.35454350e-05,3.06406250e-03
1.35854350e-05,5.07656250e-03
1.36254350e-05,-1.54687500e-04
1.36654350e-05,9.31250000e-04
1.37054350e-05,7.73906250e-03
1.37454350e-05,4.34062500e-03
1.37854350e-05,-2.03593750e-03
1.38254350e-05,-9.93906250e-03
1.38654350e-05,-8.47031250e-03
1.39054350e-05,-7.30468750e-03
1.39454350e-05,-4.16875000e-03
1.39854350e-05,-1.71718750e-03
1.40254350e-05,-1.35156250e-03
1.40654350e-05,1.21093750e-03
1.41054350e-05,2.67343750e-03
1.41454350e-05,2.43281250e-03
1.41854350e-05,3.25156250e-03
1.42254350e-05,3.49687500e-03
1.42654350e-05,3.83125000e-03
1.43054350e-05,1.60937500e-04
1.43454350e-05,-4.65625000e-03
1.43854350e-05,-3.93437500e-03
1.44254350e-05,-2.99375000e-03
1.44654350e-05,-3.15937500e-03
1.45054350e-05,-4.15625000e-04
1.45454350e-05,9.45312500e-04
1.45854350e-05,2.42500000e-03
1.46254350e-05,4.82812500e-03
1.46654350e-05,1.92968750e-03
1.47054350e-05,-1.52187500e-03
1.47454350e-05,-1.78125000e-04
1.47854350e-05,-1.76875000e-03
1.48254350e-05,-1.04531250e-03
1.48654350e-05,-1.03125000e-03
1.49054350e-05,1.06250000e-04
1.49454350e-05,-1.20000000e-03
1.49854350e-05,-1.16718750e-03
1.50254350e-05,-4.75312500e-03
1.50654350e-05,-2.99687500e-03
1.51054350e-05,8.12500000e-05
1.51454350e-05,3.14062500e-03
1.51854350e-05,2.01718750e-03
1.52254350e-05,2.49687500e-03
1.52654350e-05,3.49375000e-03
1.53054350e-05,7.07812500e-04
1.53454350e-05,-6.59375000e-04
1.53854350e-05,-3.64218750e-03
1.54254350e-05,-2.76406250e-03
1.54654350e-05,-3.49531250e-03
1.55054350e-05,-1.85468750e-03
1.55454350e-05,-6.46875000e-04
1.55854350e-05,6.42187500e-04
1.56254350e-05,2.01250000e-03
1.56654350e-05,1.29531250e-03
1.57054350e-05,1.07968750e-03
1.57454350e-05,-1.82812500e-04
1.57854350e-05,7.10937500e-04
1.58254350e-05,3.32656250e-03
1.58654350e-05,2.68593750e-03
1.59054350e-05,8.90625000e-04
1.59454350e-05,2.26562500e-04
1.59854350e-05,-2.32656250e-03
1.60254350e-05,-2.46875000e-03
1.60654350e-05,-2.78281250e-03
1.61054350e-05,-3.78593750e-03
1.61454350e-05,-8.01562500e-04
1.61854350e-05,1.20468750e-03
1.62254350e-05,3.17656250e-03
1.62654350e-05,1.43750000e-03
1.63054350e-05,4.73437500e-04
1.63454350e-05,-2.57656250e-03
1.63854350e-05,-2.43437500e-03
1.64254350e-05,-1.44843750e-03
1.64654350e-05,1.25937500e-03
1.65054350e-05,5.15625000e-05
1.65454350e-05,6.48437500e-04
1.65854350e-05,4.22968750e-03
1.66254350e-05,9.33593750e-03
1.66654350e-05,7.50000000e-03
1.67054350e-05,2.84843750e-03
1.67454350e-05,1.08281250e-03
1.67854350e-05,-2.67812500e-03
1.68254350e-05,-4.47187500e-03
1.68654350e-05,-8.14843750e-03
1.69054350e-05,-5.91718750e-03
1.69454350e-05,-2.38750000e-03
1.69854350e-05,-2.59531250e-03
1.70254350e-05,-2.62500000e-04
1.70654350e-05,2.70468750e-03
1.71054350e-05,4.88906250e-03
1.71454350e-05,8.51718750e-03
1.71854350e-05,1.81562500e-03
1.72254350e-05,-4.03437500e-03
1.72654350e-05,-4.32656250e-03
1.73054350e-05,-2.87968750e-03
1.73454350e-05,-1.75781250e-03
1.73854350e-05,-2.89062500e-04
1.74254350e-05,1.78125000e-03
1.74654350e-05,7.01562500e-04
1.75054350e-05,-9.01562500e-04
1.75454350e-05,-2.56093750e-03
1.75854350e-05,-9.45312500e-04
1.76254350e-05,-9.75000000e-04
1.76654350e-05,-8.53125000e-04
1.77054350e-05,-9.81250000e-04
1.77454350e-05,1.20937500e-03
1.77854350e-05,2.50000000e-03
1.78254350e-05,5.53125000e-04
1.78654350e-05,5.15625000e-04
1.79054350e-05,-1.19375000e-03
1.79454350e-05,-1.04218750e-03
1.79854350e-05,-1.21093750e-03
1.80254350e-05,-1.86718750e-03
1.80654350e-05,-1.98593750e-03
1.81054350e-05,9.48437500e-04
1.81454350e-05,6.09375000e-04
1.81854350e-05,1.79687500e-03
1.82254350e-05,2.76093750e-03
1.82654350e-05,1.98437500e-04
1.83054350e-05,-1.95781250e-03
1.83454350e-05,-6.75000000e-04
1.83854350e-05,2.36718750e-03
1.84254350e-05,5.42656250e-03
1.84654350e-05,8.50000000e-04
1.85054350e-05,-3.42968750e-03
1.85454350e-05,-3.92343750e-03
1.85854350e-05,-5.32187500e-03
1.86254350e-05,-1.68750000e-03
1.86654350e-05,7.40625000e-04
1.87054350e-05,1.45312500e-04
1.87454350e-05,4.54687500e-04
1.87854350e-05,1.28906250e-03
1.88254350e-05,1.04531250e-03
1.88654350e-05,5.93750000e-04
1.89054350e-05,4.81562500e-03
1.89454350e-05,3.72500000e-03
1.89854350e-05,1.12500000e-03
1.90254350e-05,-1.57968750e-03
1.90654350e-05,-1.06406250e-03
1.91054350e-05,-3.82031250e-03
1.91454350e-05,-3.21875000e-04
1.91854350e-05,2.25312500e-03
1.92254350e-05,7.48437500e-04
1.92654350e-05,2.64687500e-03
1.93054350e-05,1.35625000e-03
1.93454350e-05,-1.29531250e-03
1.93854350e-05,-4.25312500e-03
1.94254350e-05,-3.67812500e-03
1.94654350e-05,-1.17968750e-03
1.95054350e-05,4.15625000e-04
1.95454350e-05,3.07812500e-04
1.95854350e-05,1.07968750e-03
1.96254350e-05,-3.78125000e-04
1.96654350e-05,2.34062500e-03
1.97054350e-05,4.90937500e-03
1.97454350e-05,2.74843750e-03
1.97854350e-05,-3.91875000e-03
1.98254350e-05,-4.28125000e-04
1.98654350e-05,-2.51718750e-03
1.99054350e-05,-5.42500000e-03
1.99454350e-05,-4.75781250e-03
1.99854350e-05,-3.67031250e-03
2.00254350e-05,1.10000000e-03
2.00654350e-05,3.58281250e-03
