csv/June72022_DUNEPDSTests/singlephotonsearch/trace_12usecWindow_4mVTrig_25MHzSR_1kpts5mVperDiv_ch4_20220607141822356.csv

Model,MSO44
Waveform Type,ANALOG
Horizontal Units,s
Sample Interval,4.00000000e-08
Record Length,1000
Zero Index,142.11612500
Vertical Units,V
ANALOG_Thumbnail,

TIME,CH4
-5.68464500e-06,-6.64062500e-04
-5.64464500e-06,-9.88281250e-04
-5.60464500e-06,6.90625000e-04
-5.56464500e-06,-2.42187500e-05
-5.52464500e-06,2.08203125e-03
-5.48464500e-06,2.10078125e-03
-5.44464500e-06,-2.93750000e-04
-5.40464500e-06,-2.12421875e-03
-5.36464500e-06,-7.29687500e-04
-5.32464500e-06,7.85937500e-04
-5.28464500e-06,-1.56250000e-03
-5.24464500e-06,-3.72656250e-04
-5.20464500e-06,1.01093750e-03
-5.16464500e-06,1.10625000e-03
-5.12464500e-06,1.27734375e-03
-5.08464500e-06,-8.41406250e-04
-5.04464500e-06,-3.38281250e-04
-5.00464500e-06,5.44531250e-04
-4.96464500e-06,-1.24296875e-03
-4.92464500e-06,-2.19687500e-03
-4.88464500e-06,-2.53671875e-03
-4.84464500e-06,-2.65625000e-05
-4.80464500e-06,1.16171875e-03
-4.76464500e-06,-1.01484375e-03
-4.72464500e-06,-4.32031250e-04
-4.68464500e-06,5.92968750e-04
-4.64464500e-06,-2.45312500e-04
-4.60464500e-06,3.80468750e-04
-4.56464500e-06,5.18750000e-04
-4.52464500e-06,7.30468750e-04
-4.48464500e-06,2.21250000e-03
-4.44464500e-06,2.00937500e-03
-4.40464500e-06,-1.76796875e-03
-4.36464500e-06,1.80234375e-03
-4.32464500e-06,2.35390625e-03
-4.28464500e-06,1.89843750e-04
-4.24464500e-06,-1.56328125e-03
-4.20464500e-06,-3.10390625e-03
-4.16464500e-06,-1.04687500e-04
-4.12464500e-06,4.23437500e-04
-4.08464500e-06,-4.93750000e-04
-4.04464500e-06,-1.36171875e-03
-4.00464500e-06,4.68750000e-05
-3.96464500e-06,9.42187500e-04
-3.92464500e-06,-8.63281250e-04
-3.88464500e-06,-1.83125000e-03
-3.84464500e-06,-1.78984375e-03
-3.80464500e-06,-9.42187500e-04
-3.76464500e-06,-4.64843750e-04
-3.72464500e-06,1.10156250e-04
-3.68464500e-06,1.95000000e-03
-3.64464500e-06,1.42734375e-03
-3.60464500e-06,5.42187500e-04
-3.56464500e-06,1.42109375e-03
-3.52464500e-06,1.27343750e-04
-3.48464500e-06,-2.88593750e-03
-3.44464500e-06,-1.42890625e-03
-3.40464500e-06,8.21875000e-04
-3.36464500e-06,4.12500000e-04
-3.32464500e-06,-3.55859375e-03
-3.28464500e-06,-5.61718750e-04
-3.24464500e-06,-2.06171875e-03
-3.20464500e-06,-1.60703125e-03
-3.16464500e-06,8.90625000e-05
-3.12464500e-06,1.42656250e-03
-3.08464500e-06,2.95312500e-04
-3.04464500e-06,2.93750000e-04
-3.00464500e-06,-7.06250000e-04
-2.96464500e-06,-2.74609375e-03
-2.92464500e-06,2.89062500e-04
-2.88464500e-06,8.60937500e-04
-2.84464500e-06,-1.63593750e-03
-2.80464500e-06,-4.43750000e-04
-2.76464500e-06,1.47812500e-03
-2.72464500e-06,1.94921875e-03
-2.68464500e-06,1.59609375e-03
-2.64464500e-06,1.13515625e-03
-2.60464500e-06,-6.40625000e-05
-2.56464500e-06,-2.32890625e-03
-2.52464500e-06,-2.11640625e-03
-2.48464500e-06,-5.55468750e-04
-2.44464500e-06,3.53125000e-04
-2.40464500e-06,-9.71875000e-04
-2.36464500e-06,5.26562500e-04
-2.32464500e-06,1.07812500e-04
-2.28464500e-06,8.39062500e-04
-2.24464500e-06,1.62734375e-03
-2.20464500e-06,7.27343750e-04
-2.16464500e-06,-9.09375000e-04
-2.12464500e-06,-2.85937500e-04
-2.08464500e-06,-1.32812500e-05
-2.04464500e-06,6.62500000e-04
-2.00464500e-06,3.92968750e-04
-1.96464500e-06,-1.21640625e-03
-1.92464500e-06,-9.82031250e-04
-1.88464500e-06,-3.31250000e-04
-1.84464500e-06,1.05937500e-03
-1.80464500e-06,-1.20078125e-03
-1.76464500e-06,3.57812500e-04
-1.72464500e-06,-2.68750000e-04
-1.68464500e-06,-1.10156250e-03
-1.64464500e-06,-2.63750000e-03
-1.60464500e-06,-1.34609375e-03
-1.56464500e-06,9.01562500e-04
-1.52464500e-06,2.03125000e-05
-1.48464500e-06,-2.10156250e-03
-1.44464500e-06,-1.00781250e-04
-1.40464500e-06,2.09375000e-04
-1.36464500e-06,-4.71093750e-04
-1.32464500e-06,2.73437500e-05
-1.28464500e-06,2.34062500e-03
-1.24464500e-06,1.84062500e-03
-1.20464500e-06,9.89843750e-04
-1.16464500e-06,-1.36093750e-03
-1.12464500e-06,-1.71406250e-03
-1.08464500e-06,-1.07109375e-03
-1.04464500e-06,2.12265625e-03
-1.00464500e-06,3.69140625e-03
-9.64645000e-07,2.24218750e-03
-9.24645000e-07,-4.85156250e-04
-8.84645000e-07,-1.37265625e-03
-8.44645000e-07,-1.09140625e-03
-8.04645000e-07,1.86484375e-03
-7.64645000e-07,-1.05078125e-03
-7.24645000e-07,-5.43750000e-04
-6.84645000e-07,3.60156250e-04
-6.44645000e-07,-6.17187500e-04
-6.04645000e-07,1.05703125e-03
-5.64645000e-07,7.57812500e-05
-5.24645000e-07,-1.30156250e-03
-4.84645000e-07,-1.92187500e-04
-4.44645000e-07,-8.32812500e-04
-4.04645000e-07,-8.54687500e-04
-3.64645000e-07,-3.86718750e-04
-3.24645000e-07,-3.24218750e-04
-2.84645000e-07,1.84375000e-04
-2.44645000e-07,2.18750000e-04
-2.04645000e-07,-1.31562500e-03
-1.64645000e-07,-9.44531250e-04
-1.24645000e-07,-1.72031250e-03
-8.46450000e-08,-2.41093750e-03
-4.46450000e-08,5.94531250e-04
-4.64500000e-09,3.49921875e-03
3.53550000e-08,2.07500000e-03
7.53550000e-08,8.60937500e-04
1.15355000e-07,-1.10546875e-03
1.55355000e-07,9.00781250e-04
1.95355000e-07,-7.10156250e-04
2.35355000e-07,2.12500000e-04
2.75355000e-07,-2.10703125e-03
3.15355000e-07,2.00312500e-03
3.55355000e-07,1.11484375e-03
3.95355000e-07,2.95312500e-04
4.35355000e-07,-2.18750000e-04
4.75355000e-07,-4.55468750e-04
5.15355000e-07,-7.35937500e-04
5.55355000e-07,1.34531250e-03
5.95355000e-07,7.72656250e-04
6.35355000e-07,-5.44531250e-04
6.75355000e-07,5.50000000e-04
7.15355000e-07,-4.06250000e-05
7.55355000e-07,-2.68593750e-03
7.95355000e-07,-1.56250000e-05
8.35355000e-07,3.92968750e-04
8.75355000e-07,1.88125000e-03
9.15355000e-07,-3.02343750e-04
9.55355000e-07,-8.26562500e-04
9.95355000e-07,5.88281250e-04
1.03535500e-06,6.62500000e-04
1.07535500e-06,-1.36015625e-03
1.11535500e-06,-2.23984375e-03
1.15535500e-06,-3.40390625e-03
1.19535500e-06,-5.19531250e-04
1.23535500e-06,2.68750000e-03
1.27535500e-06,2.95781250e-03
1.31535500e-06,9.98437500e-04
1.35535500e-06,-3.04687500e-04
1.39535500e-06,-3.50000000e-04
1.43535500e-06,6.78906250e-04
1.47535500e-06,-1.82031250e-04
1.51535500e-06,-8.18750000e-04
1.55535500e-06,1.36015625e-03
1.59535500e-06,-1.31953125e-03
1.63535500e-06,1.66875000e-03
1.67535500e-06,3.43359375e-03
1.71535500e-06,4.04687500e-04
1.75535500e-06,-2.39765625e-03
1.79535500e-06,-2.14375000e-03
1.83535500e-06,1.80468750e-04
1.87535500e-06,-5.76562500e-04
1.91535500e-06,-1.96406250e-03
1.95535500e-06,-1.18046875e-03
1.99535500e-06,-1.51484375e-03
2.03535500e-06,1.29687500e-04
2.07535500e-06,2.38828125e-03
2.11535500e-06,-8.90625000e-04
2.15535500e-06,1.33593750e-04
2.19535500e-06,1.26484375e-03
2.23535500e-06,4.46093750e-04
2.27535500e-06,3.59375000e-04
2.31535500e-06,-1.90156250e-03
2.35535500e-06,-1.18671875e-03
2.39535500e-06,-1.38437500e-03
2.43535500e-06,-1.58125000e-03
2.47535500e-06,-1.93515625e-03
2.51535500e-06,-4.72656250e-04
2.55535500e-06,2.42031250e-03
2.59535500e-06,1.54609375e-03
2.63535500e-06,1.13515625e-03
2.67535500e-06,-2.15546875e-03
2.71535500e-06,-2.07656250e-03
2.75535500e-06,1.18515625e-03
2.79535500e-06,1.07734375e-03
2.83535500e-06,2.17109375e-03
2.87535500e-06,1.78046875e-03
2.91535500e-06,-4.84375000e-04
2.95535500e-06,-1.24453125e-03
2.99535500e-06,2.44531250e-04
3.03535500e-06,1.81328125e-03
3.07535500e-06,-2.85781250e-03
3.11535500e-06,-2.53359375e-03
3.15535500e-06,-4.07812500e-04
3.19535500e-06,1.32343750e-03
3.23535500e-06,6.78906250e-04
3.27535500e-06,8.65625000e-04
3.31535500e-06,1.25000000e-04
3.35535500e-06,-9.62500000e-04
3.39535500e-06,-4.91406250e-04
3.43535500e-06,1.28593750e-03
3.47535500e-06,4.87500000e-04
3.51535500e-06,-2.16406250e-04
3.55535500e-06,8.95312500e-04
3.59535500e-06,5.71875000e-04
3.63535500e-06,-1.71718750e-03
3.67535500e-06,1.64843750e-04
3.71535500e-06,-1.23828125e-03
3.75535500e-06,1.00859375e-03
3.79535500e-06,-3.67187500e-04
3.83535500e-06,-1.56796875e-03
3.87535500e-06,-8.84375000e-04
3.91535500e-06,-1.45468750e-03
3.95535500e-06,-6.63281250e-04
3.99535500e-06,1.26875000e-03
4.03535500e-06,1.48828125e-03
4.07535500e-06,2.99218750e-04
4.11535500e-06,-9.47656250e-04
4.15535500e-06,5.48437500e-04
4.19535500e-06,1.96250000e-03
4.23535500e-06,1.60937500e-03
4.27535500e-06,-5.17968750e-04
4.31535500e-06,-1.55390625e-03
4.35535500e-06,-2.06171875e-03
4.39535500e-06,-1.18750000e-03
4.43535500e-06,7.45312500e-04
4.47535500e-06,4.10937500e-04
4.51535500e-06,-8.24218750e-04
4.55535500e-06,-1.44765625e-03
4.59535500e-06,5.15625000e-05
4.63535500e-06,1.96093750e-04
4.67535500e-06,2.78906250e-04
4.71535500e-06,7.95312500e-04
4.75535500e-06,2.15859375e-03
4.79535500e-06,2.96875000e-04
4.83535500e-06,-1.37656250e-03
4.87535500e-06,-2.18750000e-05
4.91535500e-06,1.31406250e-03
4.95535500e-06,2.06718750e-03
4.99535500e-06,2.23515625e-03
5.03535500e-06,1.09375000e-05
5.07535500e-06,-1.47109375e-03
5.11535500e-06,-1.57812500e-03
5.15535500e-06,-1.90703125e-03
5.19535500e-06,-9.70312500e-04
5.23535500e-06,1.40937500e-03
5.27535500e-06,3.98437500e-05
5.31535500e-06,-7.80468750e-04
5.35535500e-06,-1.03750000e-03
5.39535500e-06,-9.56250000e-04
5.43535500e-06,1.39765625e-03
5.47535500e-06,1.38046875e-03
5.51535500e-06,1.16406250e-04
5.55535500e-06,-1.87968750e-03
5.59535500e-06,-3.39062500e-04
5.63535500e-06,-1.70703125e-03
5.67535500e-06,-3.09687500e-03
5.71535500e-06,4.01562500e-04
5.75535500e-06,2.27109375e-03
5.79535500e-06,3.13281250e-03
5.83535500e-06,2.30156250e-03
5.87535500e-06,4.90625000e-04
5.91535500e-06,-1.16718750e-03
5.95535500e-06,1.32187500e-03
5.99535500e-06,1.01640625e-03
6.03535500e-06,-5.44531250e-04
6.07535500e-06,5.00781250e-04
6.11535500e-06,8.80468750e-04
6.15535500e-06,-4.97656250e-04
6.19535500e-06,-1.73359375e-03
6.23535500e-06,7.31250000e-04
6.27535500e-06,-1.22968750e-03
6.31535500e-06,-1.28750000e-03
6.35535500e-06,-3.18593750e-03
6.39535500e-06,-2.54609375e-03
6.43535500e-06,-3.02343750e-04
6.47535500e-06,-3.65625000e-04
6.51535500e-06,-7.45312500e-04
6.55535500e-06,-5.65625000e-04
6.59535500e-06,-1.49218750e-03
6.63535500e-06,1.02031250e-03
6.67535500e-06,2.56875000e-03
6.71535500e-06,3.54062500e-03
6.75535500e-06,1.49531250e-03
6.79535500e-06,1.63828125e-03
6.83535500e-06,-1.13281250e-04
6.87535500e-06,1.14375000e-03
6.91535500e-06,-3.70312500e-04
6.95535500e-06,7.56250000e-04
6.99535500e-06,1.61328125e-03
7.03535500e-06,-2.70312500e-04
7.07535500e-06,-4.29687500e-05
7.11535500e-06,7.81250000e-07
7.15535500e-06,1.02109375e-03
7.19535500e-06,1.21796875e-03
7.23535500e-06,2.94531250e-04
7.27535500e-06,-3.15703125e-03
7.31535500e-06,-4.82890625e-03
7.35535500e-06,-2.25703125e-03
7.39535500e-06,-2.26562500e-04
7.43535500e-06,-1.11484375e-03
7.47535500e-06,1.07812500e-03
7.51535500e-06,1.21171875e-03
7.55535500e-06,7.03125000e-04
7.59535500e-06,2.23437500e-03
7.63535500e-06,-9.03125000e-04
7.67535500e-06,-1.43125000e-03
7.71535500e-06,-1.63281250e-04
7.75535500e-06,2.01328125e-03
7.79535500e-06,3.40234375e-03
7.83535500e-06,-7.96875000e-04
7.87535500e-06,-1.00234375e-03
7.91535500e-06,-6.51562500e-04
7.95535500e-06,-9.92187500e-05
7.99535500e-06,-9.89062500e-04
8.03535500e-06,-4.42968750e-04
8.07535500e-06,1.53906250e-04
8.11535500e-06,-3.88281250e-04
8.15535500e-06,-3.21875000e-04
8.19535500e-06,0.00000000e+00
8.23535500e-06,1.69765625e-03
8.27535500e-06,1.55937500e-03
8.31535500e-06,1.33593750e-04
8.35535500e-06,-2.66406250e-03
8.39535500e-06,-2.29531250e-03
8.43535500e-06,3.64062500e-04
8.47535500e-06,2.50703125e-03
8.51535500e-06,9.35937500e-04
8.55535500e-06,1.12656250e-03
8.59535500e-06,-1.84921875e-03
8.63535500e-06,7.34375000e-05
8.67535500e-06,4.44531250e-04
8.71535500e-06,2.87265625e-03
8.75535500e-06,3.33906250e-03
8.79535500e-06,-4.70312500e-04
8.83535500e-06,4.14062500e-05
8.87535500e-06,-6.82812500e-04
8.91535500e-06,-1.59921875e-03
8.95535500e-06,-2.14140625e-03
8.99535500e-06,-8.25000000e-04
9.03535500e-06,4.95312500e-04
9.07535500e-06,-1.26796875e-03
9.11535500e-06,-1.15156250e-03
9.15535500e-06,1.44609375e-03
9.19535500e-06,-7.00000000e-04
9.23535500e-06,5.64843750e-04
9.27535500e-06,7.92968750e-04
9.31535500e-06,3.11718750e-04
9.35535500e-06,-5.19531250e-04
9.39535500e-06,8.35156250e-04
9.43535500e-06,-1.50000000e-03
9.47535500e-06,-9.17187500e-04
9.51535500e-06,-4.67968750e-04
9.55535500e-06,-6.04687500e-04
9.59535500e-06,6.14062500e-04
9.63535500e-06,2.84218750e-03
9.67535500e-06,1.04140625e-03
9.71535500e-06,-6.78125000e-04
9.75535500e-06,-1.88046875e-03
9.79535500e-06,1.46796875e-03
9.83535500e-06,1.21015625e-03
9.87535500e-06,-8.03125000e-04
9.91535500e-06,-5.23437500e-04
9.95535500e-06,-1.39765625e-03
9.99535500e-06,-2.46015625e-03
1.00353550e-05,-3.70312500e-04
1.00753550e-05,-7.95312500e-04
1.01153550e-05,5.05468750e-04
1.01553550e-05,2.10859375e-03
1.01953550e-05,2.14765625e-03
1.02353550e-05,8.11718750e-04
1.02753550e-05,4.06250000e-05
1.03153550e-05,-2.97734375e-03
1.03553550e-05,-2.91328125e-03
1.03953550e-05,-9.73437500e-04
1.04353550e-05,1.82812500e-04
1.04753550e-05,1.70703125e-03
1.05153550e-05,2.36328125e-03
1.05553550e-05,-6.36718750e-04
1.05953550e-05,-2.76093750e-03
1.06353550e-05,-4.06250000e-04
1.06753550e-05,1.17187500e-05
1.07153550e-05,-2.03125000e-05
1.07553550e-05,6.41406250e-04
1.07953550e-05,2.89062500e-03
1.08353550e-05,1.09843750e-03
1.08753550e-05,7.50000000e-05
1.09153550e-05,-2.21875000e-03
1.09553550e-05,-1.96250000e-03
1.09953550e-05,-8.92187500e-04
1.10353550e-05,-2.65625000e-05
1.10753550e-05,-1.21406250e-03
1.11153550e-05,-1.69218750e-03
1.11553550e-05,-8.17968750e-04
1.11953550e-05,-1.18281250e-03
1.12353550e-05,-9.15625000e-04
1.12753550e-05,4.90625000e-04
1.13153550e-05,6.33593750e-04
1.13553550e-05,-9.21875000e-05
1.13953550e-05,3.10078125e-03
1.14353550e-05,2.76718750e-03
1.14753550e-05,1.49453125e-03
1.15153550e-05,-6.95312500e-05
1.15553550e-05,-4.56250000e-04
1.15953550e-05,-8.38281250e-04
1.16353550e-05,-4.69531250e-04
1.16753550e-05,6.06250000e-04
1.17153550e-05,1.26015625e-03
1.17553550e-05,5.62500000e-04
1.17953550e-05,7.96875000e-05
1.18353550e-05,-1.09375000e-03
1.18753550e-05,8.67187500e-04
1.19153550e-05,-8.85937500e-04
1.19553550e-05,-2.24218750e-04
1.19953550e-05,3.46875000e-04
1.20353550e-05,-1.01562500e-05
1.20753550e-05,1.88359375e-03
1.21153550e-05,1.39062500e-03
1.21553550e-05,1.20312500e-03
1.21953550e-05,5.18750000e-04
1.22353550e-05,-1.40546875e-03
1.22753550e-05,-1.35234375e-03
1.23153550e-05,-5.66406250e-04
1.23553550e-05,-1.35468750e-03
1.23953550e-05,2.15468750e-03
1.24353550e-05,1.32812500e-05
1.24753550e-05,-4.55468750e-04
1.25153550e-05,-1.20234375e-03
1.25553550e-05,1.63515625e-03
1.25953550e-05,2.28437500e-03
1.26353550e-05,7.07031250e-04
1.26753550e-05,2.17734375e-03
1.27153550e-05,8.60937500e-04
1.27553550e-05,-7.42187500e-04
1.27953550e-05,-1.72656250e-03
1.28353550e-05,1.26562500e-04
1.28753550e-05,1.00781250e-03
1.29153550e-05,5.29687500e-04
1.29553550e-05,-1.07421875e-03
1.29953550e-05,-5.21875000e-04
1.30353550e-05,-6.39062500e-04
1.30753550e-05,-1.52968750e-03
1.31153550e-05,5.98437500e-04
1.31553550e-05,1.53203125e-03
1.31953550e-05,9.07031250e-04
1.32353550e-05,-1.07890625e-03
1.32753550e-05,-7.03125000e-04
1.33153550e-05,-3.25781250e-04
1.33553550e-05,-1.66875000e-03
1.33953550e-05,-1.65937500e-03
1.34353550e-05,-7.44531250e-04
1.34753550e-05,-2.21953125e-03
1.35153550e-05,2.02343750e-04
1.35553550e-05,-1.19531250e-04
1.35953550e-05,-1.92890625e-03
1.36353550e-05,-4.68750000e-04
1.36753550e-05,1.02968750e-03
1.37153550e-05,2.51171875e-03
1.37553550e-05,-6.66406250e-04
1.37953550e-05,-2.50078125e-03
1.38353550e-05,2.70312500e-04
1.38753550e-05,8.45312500e-04
1.39153550e-05,2.18359375e-03
1.39553550e-05,1.24531250e-03
1.39953550e-05,1.01093750e-03
1.40353550e-05,4.82812500e-04
1.40753550e-05,4.41406250e-04
1.41153550e-05,7.84375000e-04
1.41553550e-05,3.82812500e-04
1.41953550e-05,-2.90468750e-03
1.42353550e-05,4.14062500e-05
1.42753550e-05,-5.86718750e-04
1.43153550e-05,2.85937500e-04
1.43553550e-05,3.73437500e-04
1.43953550e-05,1.30234375e-03
1.44353550e-05,5.46875000e-05
1.44753550e-05,-3.43671875e-03
1.45153550e-05,-8.46093750e-04
1.45553550e-05,1.28515625e-03
1.45953550e-05,-1.73437500e-04
1.46353550e-05,-3.42187500e-04
1.46753550e-05,-1.46093750e-03
1.47153550e-05,-6.53906250e-04
1.47553550e-05,-4.03906250e-04
1.47953550e-05,-8.28906250e-04
1.48353550e-05,1.64140625e-03
1.48753550e-05,-3.84375000e-04
1.49153550e-05,-7.99218750e-04
1.49553550e-05,1.23046875e-03
1.49953550e-05,4.64062500e-04
1.50353550e-05,-4.25781250e-04
1.50753550e-05,-9.53906250e-04
1.51153550e-05,1.11171875e-03
1.51553550e-05,1.01718750e-03
1.51953550e-05,1.71953125e-03
1.52353550e-05,-1.01562500e-03
1.52753550e-05,-2.23437500e-04
1.53153550e-05,-1.57421875e-03
1.53553550e-05,-1.51171875e-03
1.53953550e-05,-2.55468750e-03
1.54353550e-05,2.70312500e-04
1.54753550e-05,2.03671875e-03
1.55153550e-05,3.14062500e-04
1.55553550e-05,-2.09140625e-03
1.55953550e-05,2.98437500e-04
1.56353550e-05,6.87500000e-04
1.56753550e-05,6.03906250e-04
1.57153550e-05,1.82500000e-03
1.57553550e-05,-2.30468750e-04
1.57953550e-05,-2.02343750e-03
1.58353550e-05,6.48437500e-05
1.58753550e-05,-6.45312500e-04
1.59153550e-05,-1.52265625e-03
1.59553550e-05,7.69531250e-04
1.59953550e-05,1.18750000e-03
1.60353550e-05,1.51171875e-03
1.60753550e-05,-2.26562500e-04
1.61153550e-05,-1.27187500e-03
1.61553550e-05,1.06250000e-04
1.61953550e-05,-5.00781250e-04
1.62353550e-05,1.57265625e-03
1.62753550e-05,1.40781250e-03
1.63153550e-05,-1.39218750e-03
1.63553550e-05,-2.86562500e-03
1.63953550e-05,-1.81875000e-03
1.64353550e-05,1.22500000e-03
1.64753550e-05,9.27343750e-04
1.65153550e-05,-8.53125000e-04
1.65553550e-05,-2.64218750e-03
1.65953550e-05,-2.52890625e-03
1.66353550e-05,1.22578125e-03
1.66753550e-05,3.25000000e-03
1.67153550e-05,1.38281250e-04
1.67553550e-05,-3.54765625e-03
1.67953550e-05,4.75781250e-04
1.68353550e-05,5.37500000e-04
1.68753550e-05,1.81328125e-03
1.69153550e-05,3.57031250e-04
1.69553550e-05,2.64453125e-03
1.69953550e-05,3.71875000e-04
1.70353550e-05,3.02343750e-04
1.70753550e-05,3.94531250e-04
1.71153550e-05,-1.44531250e-04
1.71553550e-05,-3.50937500e-03
1.71953550e-05,3.10937500e-04
1.72353550e-05,1.31718750e-03
1.72753550e-05,1.12812500e-03
1.73153550e-05,-4.84375000e-04
1.73553550e-05,-1.99062500e-03
1.73953550e-05,-1.51484375e-03
1.74353550e-05,-1.98750000e-03
1.74753550e-05,-1.58515625e-03
1.75153550e-05,3.32031250e-04
1.75553550e-05,6.76562500e-04
1.75953550e-05,1.74140625e-03
1.76353550e-05,1.54765625e-03
1.76753550e-05,2.24218750e-03
1.77153550e-05,1.80234375e-03
1.77553550e-05,-1.07968750e-03
1.77953550e-05,-2.44140625e-03
1.78353550e-05,1.70546875e-03
1.78753550e-05,-4.25000000e-04
1.79153550e-05,-7.72656250e-04
1.79553550e-05,1.32031250e-04
1.79953550e-05,-1.13203125e-03
1.80353550e-05,-1.14687500e-03
1.80753550e-05,1.27343750e-04
1.81153550e-05,-1.22031250e-03
1.81553550e-05,-1.04062500e-03
1.81953550e-05,2.19531250e-04
1.82353550e-05,1.60859375e-03
1.82753550e-05,-6.57812500e-04
1.83153550e-05,-2.25625000e-03
1.83553550e-05,1.58671875e-03
1.83953550e-05,1.01015625e-03
1.84353550e-05,-1.28828125e-03
1.84753550e-05,-5.07812500e-04
1.85153550e-05,7.18750000e-04
1.85553550e-05,2.39453125e-03
1.85953550e-05,1.32812500e-05
1.86353550e-05,7.11718750e-04
1.86753550e-05,3.01875000e-03
1.87153550e-05,6.27343750e-04
1.87553550e-05,-9.96093750e-04
1.87953550e-05,-1.60937500e-03
1.88353550e-05,-2.34375000e-05
1.88753550e-05,1.14921875e-03
1.89153550e-05,3.56250000e-04
1.89553550e-05,1.08984375e-03
1.89953550e-05,-1.24843750e-03
1.90353550e-05,-1.27343750e-04
1.90753550e-05,-1.73437500e-04
1.91153550e-05,-1.28984375e-03
1.91553550e-05,-9.83593750e-04
1.91953550e-05,-9.32812500e-04
1.92353550e-05,-1.73125000e-03
1.92753550e-05,2.92578125e-03
1.93153550e-05,1.45859375e-03
1.93553550e-05,4.50781250e-04
1.93953550e-05,-9.69531250e-04
1.94353550e-05,-2.11250000e-03
1.94753550e-05,-2.43203125e-03
1.95153550e-05,-9.70312500e-04
1.95553550e-05,5.14843750e-04
1.95953550e-05,9.03906250e-04
1.96353550e-05,-9.85937500e-04
1.96753550e-05,-1.36953125e-03
1.97153550e-05,8.01562500e-04
1.97553550e-05,4.42968750e-04
1.97953550e-05,4.84375000e-04
1.98353550e-05,5.42187500e-04
1.98753550e-05,-1.59296875e-03
1.99153550e-05,-1.39921875e-03
1.99553550e-05,-1.51718750e-03
1.99953550e-05,1.63125000e-03
2.00353550e-05,6.40625000e-05
2.00753550e-05,1.25234375e-03
