csv/June72022_DUNEPDSTests/singlephotonsearch/12usecwindow_25MHzSR_1kpts_10mVperdiv_ch4_10.932VBias/trace_ch4_20220607145759786.csv

Model,MSO44
Waveform Type,ANALOG
Horizontal Units,s
Sample Interval,4.00000000e-08
Record Length,1000
Zero Index,142.49612500
Vertical Units,V
ANALOG_Thumbnail,

TIME,CH4
-5.69984500e-06,8.12343750e-03
-5.65984500e-06,-1.12187500e-03
-5.61984500e-06,-3.68593750e-03
-5.57984500e-06,-2.06562500e-03
-5.53984500e-06,-3.64687500e-03
-5.49984500e-06,-1.83750000e-03
-5.45984500e-06,-1.60156250e-03
-5.41984500e-06,2.50000000e-04
-5.37984500e-06,-4.10937500e-04
-5.33984500e-06,2.57500000e-03
-5.29984500e-06,4.26718750e-03
-5.25984500e-06,6.46093750e-03
-5.21984500e-06,-1.13593750e-03
-5.17984500e-06,-2.31718750e-03
-5.13984500e-06,-2.96875000e-03
-5.09984500e-06,-2.68281250e-03
-5.05984500e-06,-2.33437500e-03
-5.01984500e-06,-2.59062500e-03
-4.97984500e-06,-1.41250000e-03
-4.93984500e-06,-1.87031250e-03
-4.89984500e-06,-1.40625000e-03
-4.85984500e-06,-1.19531250e-03
-4.81984500e-06,4.08750000e-03
-4.77984500e-06,4.71250000e-03
-4.73984500e-06,6.48437500e-04
-4.69984500e-06,2.12968750e-03
-4.65984500e-06,3.52968750e-03
-4.61984500e-06,-1.25000000e-03
-4.57984500e-06,-3.49062500e-03
-4.53984500e-06,-3.10468750e-03
-4.49984500e-06,-1.57968750e-03
-4.45984500e-06,-2.18125000e-03
-4.41984500e-06,6.82812500e-04
-4.37984500e-06,2.92500000e-03
-4.33984500e-06,-1.63593750e-03
-4.29984500e-06,-3.60000000e-03
-4.25984500e-06,-2.18906250e-03
-4.21984500e-06,-3.95625000e-03
-4.17984500e-06,2.94218750e-03
-4.13984500e-06,3.32187500e-03
-4.09984500e-06,2.63750000e-03
-4.05984500e-06,6.26562500e-04
-4.01984500e-06,6.59375000e-03
-3.97984500e-06,1.11875000e-03
-3.93984500e-06,-3.10937500e-03
-3.89984500e-06,-4.05000000e-03
-3.85984500e-06,-4.57812500e-03
-3.81984500e-06,-3.24375000e-03
-3.77984500e-06,1.98125000e-03
-3.73984500e-06,1.11093750e-03
-3.69984500e-06,5.01562500e-04
-3.65984500e-06,-3.32031250e-03
-3.61984500e-06,-2.14062500e-03
-3.57984500e-06,1.39843750e-03
-3.53984500e-06,3.07187500e-03
-3.49984500e-06,1.17187500e-04
-3.45984500e-06,-3.84843750e-03
-3.41984500e-06,-2.04218750e-03
-3.37984500e-06,-2.85000000e-03
-3.33984500e-06,1.93593750e-03
-3.29984500e-06,1.87968750e-03
-3.25984500e-06,5.75000000e-03
-3.21984500e-06,2.45468750e-03
-3.17984500e-06,-3.31250000e-04
-3.13984500e-06,-1.15625000e-03
-3.09984500e-06,-4.18437500e-03
-3.05984500e-06,-6.43750000e-04
-3.01984500e-06,-1.27343750e-03
-2.97984500e-06,-2.58750000e-03
-2.93984500e-06,-5.46875000e-04
-2.89984500e-06,-6.95312500e-04
-2.85984500e-06,2.17187500e-03
-2.81984500e-06,1.24687500e-03
-2.77984500e-06,-3.27500000e-03
-2.73984500e-06,-2.57812500e-04
-2.69984500e-06,6.59375000e-04
-2.65984500e-06,-1.83437500e-03
-2.61984500e-06,3.64062500e-03
-2.57984500e-06,-3.37500000e-04
-2.53984500e-06,-1.03906250e-03
-2.49984500e-06,-2.05468750e-03
-2.45984500e-06,-1.96875000e-04
-2.41984500e-06,-1.36250000e-03
-2.37984500e-06,-2.42812500e-03
-2.33984500e-06,-1.17031250e-03
-2.29984500e-06,-9.87500000e-04
-2.25984500e-06,-8.17187500e-04
-2.21984500e-06,3.10156250e-03
-2.17984500e-06,-4.01562500e-04
-2.13984500e-06,1.76406250e-03
-2.09984500e-06,1.82812500e-03
-2.05984500e-06,4.97343750e-03
-2.01984500e-06,2.71562500e-03
-1.97984500e-06,1.61562500e-03
-1.93984500e-06,-3.20312500e-03
-1.89984500e-06,-2.23750000e-03
-1.85984500e-06,-1.50937500e-03
-1.81984500e-06,-7.01562500e-04
-1.77984500e-06,-2.22656250e-03
-1.73984500e-06,2.00625000e-03
-1.69984500e-06,8.73437500e-04
-1.65984500e-06,5.11562500e-03
-1.61984500e-06,3.35000000e-03
-1.57984500e-06,7.59531250e-03
-1.53984500e-06,-2.32812500e-04
-1.49984500e-06,-4.93125000e-03
-1.45984500e-06,-8.46093750e-03
-1.41984500e-06,-5.37500000e-03
-1.37984500e-06,-5.16875000e-03
-1.33984500e-06,-2.52656250e-03
-1.29984500e-06,-1.75312500e-03
-1.25984500e-06,7.34375000e-04
-1.21984500e-06,3.81875000e-03
-1.17984500e-06,5.67500000e-03
-1.13984500e-06,2.23437500e-03
-1.09984500e-06,-2.69218750e-03
-1.05984500e-06,-4.45937500e-03
-1.01984500e-06,-1.24531250e-03
-9.79845000e-07,-2.06718750e-03
-9.39845000e-07,1.40625000e-05
-8.99845000e-07,1.46250000e-03
-8.59845000e-07,-3.59375000e-04
-8.19845000e-07,1.35468750e-03
-7.79845000e-07,1.47656250e-03
-7.39845000e-07,3.70312500e-04
-6.99845000e-07,-1.81250000e-03
-6.59845000e-07,-1.71562500e-03
-6.19845000e-07,2.15781250e-03
-5.79845000e-07,-4.96875000e-04
-5.39845000e-07,2.61406250e-03
-4.99845000e-07,-1.12656250e-03
-4.59845000e-07,-2.39062500e-03
-4.19845000e-07,-2.36406250e-03
-3.79845000e-07,-2.29062500e-03
-3.39845000e-07,-1.74218750e-03
-2.99845000e-07,-1.68750000e-03
-2.59845000e-07,1.29687500e-04
-2.19845000e-07,2.09843750e-03
-1.79845000e-07,3.54375000e-03
-1.39845000e-07,2.96250000e-03
-9.98450000e-08,2.87343750e-03
-5.98450000e-08,-2.98750000e-03
-1.98450000e-08,-1.40312500e-03
2.01550000e-08,-2.88593750e-03
6.01550000e-08,-3.56406250e-03
1.00155000e-07,-3.84375000e-04
1.40155000e-07,-8.45312500e-04
1.80155000e-07,3.15312500e-03
2.20155000e-07,1.75156250e-03
2.60155000e-07,-1.96875000e-03
3.00155000e-07,-1.32812500e-04
3.40155000e-07,1.16250000e-03
3.80155000e-07,2.18750000e-04
4.20155000e-07,-5.65625000e-04
4.60155000e-07,-1.07500000e-03
5.00155000e-07,-2.48906250e-03
5.40155000e-07,1.35937500e-04
5.80155000e-07,7.71875000e-04
6.20155000e-07,1.64218750e-03
6.60155000e-07,5.46875000e-05
7.00155000e-07,-4.53125000e-05
7.40155000e-07,-3.75000000e-04
7.80155000e-07,5.78125000e-05
8.20155000e-07,-9.04687500e-04
8.60155000e-07,8.46875000e-04
9.00155000e-07,1.92031250e-03
9.40155000e-07,-1.95312500e-04
9.80155000e-07,1.40625000e-05
1.02015500e-06,2.00937500e-03
1.06015500e-06,1.00937500e-03
1.10015500e-06,-2.65625000e-05
1.14015500e-06,1.87812500e-03
1.18015500e-06,-1.20625000e-03
1.22015500e-06,-1.48281250e-03
1.26015500e-06,4.42187500e-04
1.30015500e-06,-1.75625000e-03
1.34015500e-06,-1.04687500e-03
1.38015500e-06,-1.48906250e-03
1.42015500e-06,-7.59375000e-04
1.46015500e-06,-6.37500000e-04
1.50015500e-06,-3.01406250e-03
1.54015500e-06,-3.07812500e-04
1.58015500e-06,2.24218750e-03
1.62015500e-06,1.68593750e-03
1.66015500e-06,-1.50156250e-03
1.70015500e-06,-2.08437500e-03
1.74015500e-06,1.70312500e-04
1.78015500e-06,3.32031250e-03
1.82015500e-06,-6.71875000e-05
1.86015500e-06,1.70312500e-04
1.90015500e-06,1.70781250e-03
1.94015500e-06,2.39062500e-03
1.98015500e-06,2.48281250e-03
2.02015500e-06,1.23593750e-03
2.06015500e-06,6.29687500e-04
2.10015500e-06,8.75000000e-04
2.14015500e-06,1.35468750e-03
2.18015500e-06,7.20312500e-04
2.22015500e-06,-1.58125000e-03
2.26015500e-06,-3.12343750e-03
2.30015500e-06,-2.54687500e-03
2.34015500e-06,1.25000000e-05
2.38015500e-06,-8.89062500e-04
2.42015500e-06,5.32812500e-04
2.46015500e-06,-1.26875000e-03
2.50015500e-06,9.68750000e-05
2.54015500e-06,2.91875000e-03
2.58015500e-06,4.43281250e-03
2.62015500e-06,-3.81250000e-04
2.66015500e-06,6.63281250e-03
2.70015500e-06,8.33437500e-03
2.74015500e-06,-8.12500000e-04
2.78015500e-06,-6.64062500e-04
2.82015500e-06,-2.60937500e-04
2.86015500e-06,-4.31093750e-03
2.90015500e-06,2.29843750e-03
2.94015500e-06,-5.07812500e-04
2.98015500e-06,4.79687500e-04
3.02015500e-06,2.55468750e-03
3.06015500e-06,-9.45312500e-04
3.10015500e-06,-3.69531250e-03
3.14015500e-06,-6.94687500e-03
3.18015500e-06,-3.89531250e-03
3.22015500e-06,-1.31406250e-03
3.26015500e-06,1.69062500e-03
3.30015500e-06,2.56406250e-03
3.34015500e-06,5.40625000e-04
3.38015500e-06,6.50781250e-03
3.42015500e-06,7.59375000e-04
3.46015500e-06,-5.86250000e-03
3.50015500e-06,-5.17187500e-03
3.54015500e-06,-6.20312500e-04
3.58015500e-06,-9.31250000e-04
3.62015500e-06,-3.30937500e-03
3.66015500e-06,-2.89843750e-03
3.70015500e-06,-9.92187500e-04
3.74015500e-06,1.84843750e-03
3.78015500e-06,-1.40625000e-05
3.82015500e-06,2.68593750e-03
3.86015500e-06,1.50000000e-03
3.90015500e-06,3.24687500e-03
3.94015500e-06,1.90625000e-03
3.98015500e-06,-2.46406250e-03
4.02015500e-06,-3.79687500e-03
4.06015500e-06,-4.95468750e-03
4.10015500e-06,-2.32500000e-03
4.14015500e-06,1.67812500e-03
4.18015500e-06,2.48750000e-03
4.22015500e-06,2.07031250e-03
4.26015500e-06,2.68593750e-03
4.30015500e-06,4.91250000e-03
4.34015500e-06,-2.03125000e-05
4.38015500e-06,-2.34531250e-03
4.42015500e-06,-2.96093750e-03
4.46015500e-06,-2.89531250e-03
4.50015500e-06,1.64062500e-04
4.54015500e-06,-1.22500000e-03
4.58015500e-06,-2.25000000e-04
4.62015500e-06,-1.25156250e-03
4.66015500e-06,3.40781250e-03
4.70015500e-06,1.56250000e-03
4.74015500e-06,1.81718750e-03
4.78015500e-06,-2.32812500e-04
4.82015500e-06,2.12656250e-03
4.86015500e-06,6.75625000e-03
4.90015500e-06,-1.84062500e-03
4.94015500e-06,-3.89375000e-03
4.98015500e-06,-1.47968750e-03
5.02015500e-06,-2.71875000e-04
5.06015500e-06,-1.46406250e-03
5.10015500e-06,1.93750000e-03
5.14015500e-06,7.23437500e-04
5.18015500e-06,7.65625000e-05
5.22015500e-06,1.38750000e-03
5.26015500e-06,6.43750000e-04
5.30015500e-06,-3.56250000e-03
5.34015500e-06,-1.06093750e-03
5.38015500e-06,1.73593750e-03
5.42015500e-06,1.54062500e-03
5.46015500e-06,6.89062500e-04
5.50015500e-06,3.38750000e-03
5.54015500e-06,2.01718750e-03
5.58015500e-06,-3.68906250e-03
5.62015500e-06,-6.91250000e-03
5.66015500e-06,-3.80156250e-03
5.70015500e-06,1.04843750e-03
5.74015500e-06,2.89843750e-03
5.78015500e-06,1.03750000e-03
5.82015500e-06,-1.51093750e-03
5.86015500e-06,-9.21875000e-05
5.90015500e-06,4.31250000e-03
5.94015500e-06,1.57187500e-03
5.98015500e-06,-1.34218750e-03
6.02015500e-06,-2.78750000e-03
6.06015500e-06,-3.79687500e-03
6.10015500e-06,3.64062500e-04
6.14015500e-06,5.18906250e-03
6.18015500e-06,2.34375000e-03
6.22015500e-06,3.09062500e-03
6.26015500e-06,1.32187500e-03
6.30015500e-06,3.06562500e-03
6.34015500e-06,1.03125000e-04
6.38015500e-06,-5.89062500e-04
6.42015500e-06,3.25000000e-04
6.46015500e-06,8.79687500e-04
6.50015500e-06,-2.62500000e-03
6.54015500e-06,-2.99843750e-03
6.58015500e-06,-1.85625000e-03
6.62015500e-06,-4.38125000e-03
6.66015500e-06,-2.08125000e-03
6.70015500e-06,-1.50000000e-04
6.74015500e-06,4.32968750e-03
6.78015500e-06,1.94843750e-03
6.82015500e-06,8.84531250e-03
6.86015500e-06,1.18906250e-03
6.90015500e-06,-4.85156250e-03
6.94015500e-06,-4.14218750e-03
6.98015500e-06,-4.67187500e-03
7.02015500e-06,-3.37812500e-03
7.06015500e-06,-2.96875000e-03
7.10015500e-06,-1.34843750e-03
7.14015500e-06,-3.29843750e-03
7.18015500e-06,-1.39843750e-03
7.22015500e-06,4.08125000e-03
7.26015500e-06,4.78750000e-03
7.30015500e-06,1.22968750e-03
7.34015500e-06,1.75781250e-03
7.38015500e-06,-6.31250000e-04
7.42015500e-06,-1.49843750e-03
7.46015500e-06,-3.57343750e-03
7.50015500e-06,-3.34531250e-03
7.54015500e-06,-3.98593750e-03
7.58015500e-06,-9.53125000e-04
7.62015500e-06,9.21875000e-04
7.66015500e-06,4.77656250e-03
7.70015500e-06,6.38125000e-03
7.74015500e-06,-1.15625000e-04
7.78015500e-06,-6.29062500e-03
7.82015500e-06,-4.15000000e-03
7.86015500e-06,-1.75781250e-03
7.90015500e-06,-3.82812500e-04
7.94015500e-06,2.82812500e-04
7.98015500e-06,7.29687500e-04
8.02015500e-06,-1.50000000e-04
8.06015500e-06,-6.87500000e-05
8.10015500e-06,2.40625000e-04
8.14015500e-06,7.81250000e-05
8.18015500e-06,1.30937500e-03
8.22015500e-06,-4.84375000e-04
8.26015500e-06,-1.89062500e-04
8.30015500e-06,1.23750000e-03
8.34015500e-06,-1.57656250e-03
8.38015500e-06,-3.79687500e-04
8.42015500e-06,-4.84375000e-05
8.46015500e-06,1.68437500e-03
8.50015500e-06,1.96093750e-03
8.54015500e-06,-1.73437500e-04
8.58015500e-06,-6.43750000e-04
8.62015500e-06,-2.53125000e-03
8.66015500e-06,-3.01562500e-03
8.70015500e-06,-2.08906250e-03
8.74015500e-06,-5.09375000e-04
8.78015500e-06,5.15625000e-05
8.82015500e-06,-5.70312500e-04
8.86015500e-06,-2.10937500e-04
8.90015500e-06,1.96562500e-03
8.94015500e-06,3.60937500e-04
8.98015500e-06,-1.04687500e-03
9.02015500e-06,2.66250000e-03
9.06015500e-06,3.76250000e-03
9.10015500e-06,-6.42187500e-04
9.14015500e-06,1.87500000e-04
9.18015500e-06,-1.73125000e-03
9.22015500e-06,-3.15312500e-03
9.26015500e-06,-2.39062500e-04
9.30015500e-06,3.31250000e-04
9.34015500e-06,-8.92187500e-04
9.38015500e-06,-1.54218750e-03
9.42015500e-06,3.59218750e-03
9.46015500e-06,4.85781250e-03
9.50015500e-06,2.41250000e-03
9.54015500e-06,2.30312500e-03
9.58015500e-06,-1.09375000e-04
9.62015500e-06,-3.85000000e-03
9.66015500e-06,-1.76718750e-03
9.70015500e-06,-1.52031250e-03
9.74015500e-06,4.06250000e-05
9.78015500e-06,1.73437500e-03
9.82015500e-06,1.49531250e-03
9.86015500e-06,8.59375000e-04
9.90015500e-06,-9.06250000e-04
9.94015500e-06,-6.87500000e-04
9.98015500e-06,-1.50312500e-03
1.00201550e-05,8.81250000e-04
1.00601550e-05,3.87500000e-04
1.01001550e-05,-1.25312500e-03
1.01401550e-05,-1.65312500e-03
1.01801550e-05,-3.39843750e-03
1.02201550e-05,1.72187500e-03
1.02601550e-05,9.84375000e-04
1.03001550e-05,1.51562500e-03
1.03401550e-05,4.34375000e-04
1.03801550e-05,4.25000000e-04
1.04201550e-05,2.34531250e-03
1.04601550e-05,5.09375000e-04
1.05001550e-05,2.05000000e-03
1.05401550e-05,1.59375000e-04
1.05801550e-05,-3.92343750e-03
1.06201550e-05,-1.23593750e-03
1.06601550e-05,-1.25000000e-05
1.07001550e-05,-2.71875000e-04
1.07401550e-05,2.13906250e-03
1.07801550e-05,-1.09375000e-05
1.08201550e-05,2.31718750e-03
1.08601550e-05,-1.29687500e-04
1.09001550e-05,-1.27656250e-03
1.09401550e-05,4.71875000e-04
1.09801550e-05,-1.46562500e-03
1.10201550e-05,1.95625000e-03
1.10601550e-05,2.01718750e-03
1.11001550e-05,2.78125000e-03
1.11401550e-05,2.34375000e-05
1.11801550e-05,1.40625000e-05
1.12201550e-05,-1.53750000e-03
1.12601550e-05,2.81718750e-03
1.13001550e-05,8.79687500e-04
1.13401550e-05,-5.65625000e-04
1.13801550e-05,1.20312500e-04
1.14201550e-05,-2.32812500e-03
1.14601550e-05,-7.48437500e-04
1.15001550e-05,-1.52031250e-03
1.15401550e-05,3.22187500e-03
1.15801550e-05,3.60937500e-04
1.16201550e-05,1.12187500e-03
1.16601550e-05,-1.57187500e-03
1.17001550e-05,-1.52500000e-03
1.17401550e-05,-1.13906250e-03
1.17801550e-05,-1.77500000e-03
1.18201550e-05,-1.46562500e-03
1.18601550e-05,-1.01250000e-03
1.19001550e-05,2.41406250e-03
1.19401550e-05,3.13750000e-03
1.19801550e-05,1.44843750e-03
1.20201550e-05,-8.21875000e-04
1.20601550e-05,-3.88750000e-03
1.21001550e-05,-2.61718750e-03
1.21401550e-05,-9.68750000e-05
1.21801550e-05,-1.70312500e-04
1.22201550e-05,1.21875000e-03
1.22601550e-05,-1.00468750e-03
1.23001550e-05,2.18750000e-05
1.23401550e-05,4.68750000e-05
1.23801550e-05,9.40625000e-04
1.24201550e-05,-2.30156250e-03
1.24601550e-05,-1.77500000e-03
1.25001550e-05,1.28750000e-03
1.25401550e-05,5.40625000e-04
1.25801550e-05,7.00000000e-04
1.26201550e-05,1.21093750e-03
1.26601550e-05,1.50781250e-03
1.27001550e-05,-2.03437500e-03
1.27401550e-05,4.50000000e-04
1.27801550e-05,-1.80156250e-03
1.28201550e-05,-1.32656250e-03
1.28601550e-05,-2.05468750e-03
1.29001550e-05,5.20312500e-04
1.29401550e-05,2.06875000e-03
1.29801550e-05,3.20468750e-03
1.30201550e-05,3.18750000e-03
1.30601550e-05,4.48750000e-03
1.31001550e-05,2.53750000e-03
1.31401550e-05,2.07031250e-03
1.31801550e-05,-3.38750000e-03
1.32201550e-05,-2.08593750e-03
1.32601550e-05,-8.26562500e-04
1.33001550e-05,2.24218750e-03
1.33401550e-05,4.95312500e-04
1.33801550e-05,1.21718750e-03
1.34201550e-05,-1.29843750e-03
1.34601550e-05,-4.48281250e-03
1.35001550e-05,8.79687500e-04
1.35401550e-05,4.94062500e-03
1.35801550e-05,4.48906250e-03
1.36201550e-05,9.89062500e-04
1.36601550e-05,3.71875000e-04
1.37001550e-05,-2.76562500e-03
1.37401550e-05,-3.71718750e-03
1.37801550e-05,-3.59375000e-03
1.38201550e-05,-2.55468750e-03
1.38601550e-05,-1.84843750e-03
1.39001550e-05,-3.40156250e-03
1.39401550e-05,-3.87500000e-04
1.39801550e-05,4.92031250e-03
1.40201550e-05,3.86875000e-03
1.40601550e-05,5.71093750e-03
1.41001550e-05,2.78125000e-04
1.41401550e-05,-3.42343750e-03
1.41801550e-05,-2.94843750e-03
1.42201550e-05,-2.85468750e-03
1.42601550e-05,4.07187500e-03
1.43001550e-05,1.66093750e-03
1.43401550e-05,-2.03593750e-03
1.43801550e-05,-5.47656250e-03
1.44201550e-05,-4.91093750e-03
1.44601550e-05,-2.66562500e-03
1.45001550e-05,-6.32812500e-04
1.45401550e-05,6.46875000e-04
1.45801550e-05,2.78906250e-03
1.46201550e-05,4.93750000e-03
1.46601550e-05,3.62187500e-03
1.47001550e-05,1.18125000e-03
1.47401550e-05,-2.82812500e-04
1.47801550e-05,-3.50468750e-03
1.48201550e-05,-1.71250000e-03
1.48601550e-05,-1.27656250e-03
1.49001550e-05,-2.49843750e-03
1.49401550e-05,-3.40625000e-03
1.49801550e-05,7.03125000e-05
1.50201550e-05,7.51562500e-04
1.50601550e-05,4.64062500e-04
1.51001550e-05,3.79531250e-03
1.51401550e-05,-2.34375000e-05
1.51801550e-05,-1.69062500e-03
1.52201550e-05,-7.81250000e-05
1.52601550e-05,-2.63593750e-03
1.53001550e-05,-1.10156250e-03
1.53401550e-05,2.92968750e-03
1.53801550e-05,-5.64062500e-04
1.54201550e-05,-3.87968750e-03
1.54601550e-05,1.85156250e-03
1.55001550e-05,5.05000000e-03
1.55401550e-05,2.12187500e-03
1.55801550e-05,3.45312500e-04
1.56201550e-05,-1.48125000e-03
1.56601550e-05,-4.30156250e-03
1.57001550e-05,-3.64218750e-03
1.57401550e-05,-5.93750000e-04
1.57801550e-05,2.49062500e-03
1.58201550e-05,-1.49375000e-03
1.58601550e-05,5.31250000e-05
1.59001550e-05,6.53593750e-03
1.59401550e-05,5.30781250e-03
1.59801550e-05,1.71875000e-05
1.60201550e-05,-2.88437500e-03
1.60601550e-05,-2.13906250e-03
1.61001550e-05,-3.52031250e-03
1.61401550e-05,1.38437500e-03
1.61801550e-05,-1.28437500e-03
1.62201550e-05,-1.10781250e-03
1.62601550e-05,-1.50937500e-03
1.63001550e-05,1.49062500e-03
1.63401550e-05,2.37500000e-03
1.63801550e-05,8.17187500e-04
1.64201550e-05,-2.73125000e-03
1.64601550e-05,-1.87187500e-03
1.65001550e-05,2.09531250e-03
1.65401550e-05,-2.60000000e-03
1.65801550e-05,1.98437500e-03
1.66201550e-05,1.82343750e-03
1.66601550e-05,7.71875000e-04
1.67001550e-05,-2.34375000e-04
1.67401550e-05,1.45937500e-03
1.67801550e-05,-3.67187500e-04
1.68201550e-05,-2.10625000e-03
1.68601550e-05,-2.41250000e-03
1.69001550e-05,-1.68906250e-03
1.69401550e-05,3.67187500e-04
1.69801550e-05,-4.90625000e-04
1.70201550e-05,-7.03125000e-05
1.70601550e-05,2.01718750e-03
1.71001550e-05,-1.76562500e-04
1.71401550e-05,-1.02812500e-03
1.71801550e-05,2.64062500e-04
1.72201550e-05,-1.24375000e-03
1.72601550e-05,-1.45468750e-03
1.73001550e-05,3.67187500e-04
1.73401550e-05,1.40625000e-04
1.73801550e-05,9.21875000e-05
1.74201550e-05,2.18750000e-04
1.74601550e-05,9.10937500e-04
1.75001550e-05,1.56250000e-05
1.75401550e-05,-1.34375000e-04
1.75801550e-05,-2.07812500e-03
1.76201550e-05,-2.42187500e-04
1.76601550e-05,-8.00000000e-04
1.77001550e-05,-2.58906250e-03
1.77401550e-05,-1.10468750e-03
1.77801550e-05,1.08125000e-03
1.78201550e-05,-1.02812500e-03
1.78601550e-05,-3.26406250e-03
1.79001550e-05,-6.96875000e-04
1.79401550e-05,1.76718750e-03
1.79801550e-05,2.10312500e-03
1.80201550e-05,3.34375000e-04
1.80601550e-05,1.79687500e-04
1.81001550e-05,-2.25625000e-03
1.81401550e-05,-3.02656250e-03
1.81801550e-05,-5.37500000e-04
1.82201550e-05,1.70156250e-03
1.82601550e-05,2.06250000e-03
1.83001550e-05,1.03906250e-03
1.83401550e-05,7.53125000e-04
1.83801550e-05,6.56250000e-05
1.84201550e-05,-2.15937500e-03
1.84601550e-05,-3.78125000e-04
1.85001550e-05,-3.29687500e-03
1.85401550e-05,-7.32812500e-04
1.85801550e-05,-1.15000000e-03
1.86201550e-05,1.11562500e-03
1.86601550e-05,9.12500000e-04
1.87001550e-05,1.10156250e-03
1.87401550e-05,2.41406250e-03
1.87801550e-05,5.78906250e-03
1.88201550e-05,4.14375000e-03
1.88601550e-05,-1.60937500e-04
1.89001550e-05,-6.60937500e-04
1.89401550e-05,-2.11093750e-03
1.89801550e-05,-5.40625000e-03
1.90201550e-05,-1.94687500e-03
1.90601550e-05,-1.71875000e-03
1.91001550e-05,2.69062500e-03
1.91401550e-05,1.45312500e-03
1.91801550e-05,-2.40000000e-03
1.92201550e-05,-1.65468750e-03
1.92601550e-05,5.00000000e-05
1.93001550e-05,-2.15937500e-03
1.93401550e-05,-2.92187500e-04
1.93801550e-05,1.23437500e-04
1.94201550e-05,7.81250000e-06
1.94601550e-05,2.85468750e-03
1.95001550e-05,1.15156250e-03
1.95401550e-05,-8.75000000e-05
1.95801550e-05,2.28750000e-03
1.96201550e-05,-1.65625000e-03
1.96601550e-05,-1.11562500e-03
1.97001550e-05,-3.08593750e-03
1.97401550e-05,-1.34375000e-03
1.97801550e-05,-2.62500000e-04
1.98201550e-05,-9.59375000e-04
1.98601550e-05,1.50000000e-04
1.99001550e-05,2.34375000e-05
1.99401550e-05,1.90312500e-03
1.99801550e-05,1.96093750e-03
2.00201550e-05,2.26562500e-04
